-------------------------------------------------------------------------------
Test set: com.sortingapp.SingleElementArrayCaseTest
-------------------------------------------------------------------------------
Tests run: 3, Failures: 0, Errors: 0, Skipped: 0, Time elapsed: 0.001 s - in com.sortingapp.SingleElementArrayCaseTest
